Sub script()
Dim CoutRows As Long
Dim Files As Integer
Dim Init As Long
Dim Endr As Long


CoutRows = Range("A" & Rows.Count).End(xlUp).Row
Files = CoutRows / 50000
For j = 1 To Files
If j = 1 Then
Init = 2
Else
Init = ((j - 1) * 50000) + 1
End If

If j = Files Then
Endr = CoutRows
Else
Endr = j * 50000
End If

Open "C:\scriptsBcp\script" & j & ".txt" For Output As #1
    For i = Init To Endr
    Print #1, "INSERT INTO [BLTT_CLIENTES]([CLIG_IdRegistro],[CLIV_Nombres],[CLIV_ApellidoPaterno],[CLIV_ApellidoMaterno],[CLIV_TipoDocumento],[CLIV_NumerDocumento],[CLII_Meta],[CLII_Bono],[CLIV_GrupoCampania])VALUES(NEWID(),'" & Range("C" & i) & " ','" & Range("D" & i) & " ','" & Range("E" & i) & "'," & Range("A" & i) & ",'" & Range("B" & i) & "'," & Range("F" & i) & "," & Range("G" & i) & ",'" & Range("H" & i) & " ')"
    Next
    
    Close #1

Next
   



End Sub